1,1948,1,5.8916,-76.651
2,1948,2,-3.7052,95.686
3,1948,3,-0.38336,8.22
4,1948,4,-6.6235,177.63
5,1948,5,0.074162,-10.728
6,1948,6,-1.3582,25.305
7,1948,7,2.8085,-45.586
8,1948,8,-3.0631,11.647
9,1948,9,7.3039,-38.284
10,1948,10,11.406,-96.101
11,1948,11,8.4753,-71.547
12,1948,12,-1.8611,-50.539
13,1949,1,8.746,-2.5024
14,1949,2,-3.8333,27.172
15,1949,3,-1.1739,25.982
16,1949,4,5.1059,-71.012
17,1949,5,1.2336,15.235
18,1949,6,3.9912,-32.759
19,1949,7,1.3479,2.7487
20,1949,8,-2.0287,-19.906
21,1949,9,1.9883,-16.764
22,1949,10,2.1928,16.766
23,1949,11,4.2672,-46.786
24,1949,12,-5.3316,70.288
25,1950,1,-10.13,313.04
26,1950,2,-1.2789,0.15652
27,1950,3,-2.937,-6.724
28,1950,4,-0.18213,-21.134
29,1950,5,3.658,-57.527
30,1950,6,-1.3419,4.5866
31,1950,7,5.4949,-4.5053
32,1950,8,0.66076,52.542
33,1950,9,1.6227,-30.31
34,1950,10,-9.6102,-19.198
35,1950,11,-8.7308,173.7
36,1950,12,-2.5247,-2.3454
37,1951,1,-2.1701,-55.745
38,1951,2,-1.8444,16.087
39,1951,3,2.5799,26.022
40,1951,4,2.1098,11.278
41,1951,5,-0.72753,15.686
42,1951,6,3.1326,16.523
43,1951,7,-1.3632,47.394
44,1951,8,-2.5273,21.231
45,1951,9,-3.4203,15.926
46,1951,10,-7.0633,46
47,1951,11,-2.4364,-2.0539
48,1951,12,-4.1428,67.562
49,1952,1,-0.6157,14.566
50,1952,2,-1.1125,-61.484
51,1952,3,-0.24062,-51.781
52,1952,4,3.8967,-75.602
53,1952,5,3.1344,-8.963
54,1952,6,-1.178,-17.698
55,1952,7,0.40122,3.5265
56,1952,8,0.23463,17.122
57,1952,9,4.3116,9.9295
58,1952,10,8.8836,0.66474
59,1952,11,4.6355,-47.342
60,1952,12,-0.77832,-134.82
61,1953,1,-5.7538,-8.9465
62,1953,2,6.6394,-116.23
63,1953,3,2.2438,-42.204
64,1953,4,-0.36633,40.659
65,1953,5,0.90133,-11.991
66,1953,6,-1.6936,102.05
67,1953,7,-2.0118,50.918
68,1953,8,1.7966,-7.3822
69,1953,9,-1.5015,-13.517
70,1953,10,7.1106,-55.791
71,1953,11,-3.195,-44.322
72,1953,12,4.8911,-78.463
73,1954,1,-4.1193,66.807
74,1954,2,6.2964,-67.665
75,1954,3,-2.1393,82.638
76,1954,4,-2.1694,99.296
77,1954,5,-0.82673,32.73
78,1954,6,-1.6591,-11
79,1954,7,-0.40241,5.9134
80,1954,8,-6.7265,23.46
81,1954,9,-4.9445,88.495
82,1954,10,-0.55751,6.5435
83,1954,11,2.1494,-5.5772
84,1954,12,6.1756,-78.475
85,1955,1,1.9051,-92.019
86,1955,2,-0.026698,47.667
87,1955,3,3.3802,48.513
88,1955,4,-1.7425,-70.084
89,1955,5,3.0402,-82.718
90,1955,6,0.18531,-51.205
91,1955,7,-2.963,-5.2843
92,1955,8,4.3329,-35.479
93,1955,9,-4.9001,19.431
94,1955,10,-1.1231,-108.49
95,1955,11,-7.5937,96.901
96,1955,12,-5.375,93.505
97,1956,1,-7.238,44.541
98,1956,2,-1.1673,8.9411
99,1956,3,-1.0204,-46.249
100,1956,4,-1.1305,-8.2556
101,1956,5,5.8546,-87.181
102,1956,6,-0.96276,-11.552
103,1956,7,-1.581,53.816
104,1956,8,8.1924,-2.4029
105,1956,9,-5.9731,39.176
106,1956,10,-2.7836,-43.981
107,1956,11,10.696,-62.312
108,1956,12,4.3869,51.5
109,1957,1,-8.5735,236.77
110,1957,2,-1.8028,108.15
111,1957,3,-4.5159,2.6822
112,1957,4,-0.24109,53.289
113,1957,5,-0.21843,56.976
114,1957,6,-1.8608,83.902
115,1957,7,-1.2141,21.901
116,1957,8,-4.6307,48.682
117,1957,9,-3.2137,14.496
118,1957,10,-6.1017,127.4
119,1957,11,6.8302,0.39122
120,1957,12,-0.26614,-130.71
121,1958,1,3.0709,-89.984
122,1958,2,-4.1384,83.968
123,1958,3,-5.2615,92.21
124,1958,4,-1.8442,71.86
125,1958,5,4.336,-36.996
126,1958,6,-2.1639,5.2631
127,1958,7,3.2028,-52.168
128,1958,8,2.9062,-54.468
129,1958,9,-4.1843,-32.459
130,1958,10,4.5727,-14.143
131,1958,11,-0.22535,-41.047
132,1958,12,4.0483,39.597
133,1959,1,-6.9822,91.173
134,1959,2,1.396,41.033
135,1959,3,5.7129,-91.955
136,1959,4,-0.55972,1.3544
137,1959,5,0.46294,42.064
138,1959,6,-2.867,40.266
139,1959,7,6.9348,-55.253
140,1959,8,-0.26433,15.367
141,1959,9,-5.1748,-9.2303
142,1959,10,-1.7603,65.16
143,1959,11,4.9241,31.973
144,1959,12,8.5327,-118.4
145,1960,1,0.77977,-1.6935
146,1960,2,-2.932,26.944
147,1960,3,3.3599,33.621
148,1960,4,0.13221,-84.142
149,1960,5,-2.4126,42.737
150,1960,6,0.16998,-18.513
151,1960,7,3.6167,1.5577
152,1960,8,-0.68239,-30.992
153,1960,9,1.3521,-5.8519
154,1960,10,5.3366,-13.788
155,1960,11,-1.7715,-34.616
156,1960,12,5.5572,21.516
157,1961,1,-1.1158,4.4797
158,1961,2,3.6974,-83.98
159,1961,3,1.2868,-83.641
160,1961,4,2.1741,34.428
161,1961,5,0.93181,30.112
162,1961,6,3.2394,-2.2435
163,1961,7,3.4036,-6.7287
164,1961,8,9.5245,-62.271
165,1961,9,-3.1485,-8.0486
166,1961,10,6.366,-37.462
167,1961,11,-0.47455,-37.062
168,1961,12,-1.8234,-16.666
169,1962,1,5.5886,93.556
170,1962,2,-7.6432,149.6
171,1962,3,1.9787,24.056
172,1962,4,-0.056421,31.165
173,1962,5,-1.8863,14.052
174,1962,6,3.2038,28.477
175,1962,7,-1.1169,67.178
176,1962,8,-2.5635,2.3462
177,1962,9,3.9235,-50.804
178,1962,10,-0.97454,-37.425
179,1962,11,-0.68011,-50.092
180,1962,12,3.971,74.266
181,1963,1,2.4906,193.45
182,1963,2,5.3088,21.899
183,1963,3,-0.65934,64.133
184,1963,4,-0.46199,14.751
185,1963,5,-1.0618,34.733
186,1963,6,2.9033,-80.437
187,1963,7,-0.2725,7.1741
188,1963,8,-6.8841,26.068
189,1963,9,4.6404,10.108
190,1963,10,1.3174,-48.672
191,1963,11,-3.6457,3.0029
192,1963,12,3.2905,39.778
193,1964,1,-0.57999,-95.275
194,1964,2,10.488,-107.51
195,1964,3,2.6551,-20.492
196,1964,4,1.3474,-44.612
197,1964,5,1.7476,10.979
198,1964,6,-0.16978,31.05
199,1964,7,3.5394,-37.58
200,1964,8,-1.0822,-51.041
201,1964,9,-8.4327,61.903
202,1964,10,1.2118,-12.789
203,1964,11,-2.3587,13.881
204,1964,12,-0.3376,73.12
205,1965,1,4.1494,-6.1338
206,1965,2,1.1576,-40.177
207,1965,3,-2.4055,135.5
208,1965,4,0.11688,48.374
209,1965,5,2.3995,-59.63
210,1965,6,1.4497,-94.863
211,1965,7,-1.5986,-11.092
212,1965,8,-3.0477,5.2691
213,1965,9,-11.431,77.531
214,1965,10,8.6813,-60.857
215,1965,11,-8.2118,105.15
216,1965,12,-1.2332,-9.5373
217,1966,1,-5.5511,29.668
218,1966,2,-1.4454,-1.7108
219,1966,3,4.9415,-80.388
220,1966,4,-2.5162,85.086
221,1966,5,7.644,-84.627
222,1966,6,-3.0009,20.232
223,1966,7,-2.1317,-4.3224
224,1966,8,1.7192,-69.92
225,1966,9,3.2362,-28.915
226,1966,10,2.8057,-86.926
227,1966,11,-3.9424,128.1
228,1966,12,-1.8687,39.313
229,1967,1,-2.1642,-10.529
230,1967,2,3.1415,-57.066
231,1967,3,-4.9591,156.79
232,1967,4,-5.1717,97.973
233,1967,5,0.32842,104.36
234,1967,6,-1.4665,21.652
235,1967,7,1.7677,21.278
236,1967,8,3.5211,-17.739
237,1967,9,7.0906,-89.712
238,1967,10,-0.33986,-16.414
239,1967,11,-0.59294,6.0328
240,1967,12,-1.5818,31.535
241,1968,1,-3.5673,95.636
242,1968,2,3.1259,2.8881
243,1968,3,2.0303,6.9668
244,1968,4,2.7527,-69.399
245,1968,5,-1.9121,51.26
246,1968,6,-1.4545,-3.2535
247,1968,7,-0.71032,13.363
248,1968,8,-4.3394,8.2323
249,1968,9,5.2426,-29.642
250,1968,10,-4.1204,-61.999
251,1968,11,1.4365,-58.014
252,1968,12,-7.7674,69.257
253,1969,1,-8.8928,106.42
254,1969,2,-5.8671,-97.927
255,1969,3,0.24476,16.898
256,1969,4,-1.0479,-41.304
257,1969,5,0.16229,3.1595
258,1969,6,-2.5201,17.067
259,1969,7,5.7716,-21.109
260,1969,8,2.2675,-44.014
261,1969,9,-6.368,13.345
262,1969,10,-5.096,80.521
263,1969,11,9.4784,-39.427
264,1969,12,3.8946,-49.788
265,1970,1,-3.6359,-26.122
266,1970,2,2.0348,8.4944
267,1970,3,2.2867,1.1762
268,1970,4,2.1041,-94.967
269,1970,5,2.2517,7.0504
270,1970,6,1.5418,-43.105
271,1970,7,1.6385,-68.976
272,1970,8,1.747,-50.228
273,1970,9,2.9889,25.973
274,1970,10,-1.8791,-7.6365
275,1970,11,-7.3321,142.13
276,1970,12,-3.2135,-7.429
277,1971,1,-0.17895,17.607
278,1971,2,1.1993,-55.78
279,1971,3,-0.031368,-96.804
280,1971,4,0.11599,-88.547
281,1971,5,3.7837,-120.83
282,1971,6,-2.1587,-7.0433
283,1971,7,-1.687,-10.561
284,1971,8,1.3714,-21.877
285,1971,9,-4.4716,12.91
286,1971,10,-2.3946,-21.213
287,1971,11,-2.6027,-7.8036
288,1971,12,-3.5191,29.809
289,1972,1,-3.2345,-6.5259
290,1972,2,-2.7038,41.296
291,1972,3,2.0706,-49.171
292,1972,4,-1.7021,-79.911
293,1972,5,0.50809,3.4856
294,1972,6,-0.63431,-53.74
295,1972,7,-3.0376,43.314
296,1972,8,5.0383,-6.7683
297,1972,9,-4.6747,67.371
298,1972,10,-0.19019,50.759
299,1972,11,-3.7483,-1.9255
300,1972,12,-3.8971,100.53
301,1973,1,-2.0751,-76.07
302,1973,2,-0.38938,50.527
303,1973,3,0.11,-81.699
304,1973,4,0.74736,-17.115
305,1973,5,2.8375,-89.841
306,1973,6,-0.26987,-16.787
307,1973,7,0.82685,-20.271
308,1973,8,2.0453,-22.377
309,1973,9,-4.4978,-14.217
310,1973,10,-3.1558,-17.931
311,1973,11,-10.709,138.34
312,1973,12,-2.7402,-48.974
313,1974,1,-6.2406,93.869
314,1974,2,5.0701,-104.01
315,1974,3,-6.1681,24.708
316,1974,4,-0.86071,-34.67
317,1974,5,0.15946,5.4288
318,1974,6,0.56206,-6.4751
319,1974,7,-0.74122,-9.7429
320,1974,8,-4.5428,66.852
321,1974,9,-4.4408,77.662
322,1974,10,13.671,-29.645
323,1974,11,6.4806,-65.469
324,1974,12,6.4142,-109.23
325,1975,1,-1.3162,-47.071
326,1975,2,0.24449,-13.977
327,1975,3,-2.5686,-37.546
328,1975,4,-0.48627,3.5747
329,1975,5,-0.39361,-43.93
330,1975,6,1.3465,-17.238
331,1975,7,2.6382,11.293
332,1975,8,-4.5709,23.751
333,1975,9,1.0786,5.6981
334,1975,10,-6.1744,19.02
335,1975,11,-4.2675,-51.049
336,1975,12,1.6862,-47.692
337,1976,1,7.9982,-48.986
338,1976,2,0.11643,-40.202
339,1976,3,1.5233,-81.825
340,1976,4,-0.95434,-66.714
341,1976,5,4.4808,-63.402
342,1976,6,-1.7141,24.707
343,1976,7,-0.72235,-31.163
344,1976,8,-2.4489,-4.2447
345,1976,9,3.253,-72.49
346,1976,10,-1.43,-24.936
347,1976,11,6.487,-28.637
348,1976,12,2.6581,-30.527
349,1977,1,-1.0823,45.082
350,1977,2,4.7409,-48.919
351,1977,3,1.1277,-71.587
352,1977,4,3.2151,-38.769
353,1977,5,-2.0322,-75.697
354,1977,6,0.21536,2.9765
355,1977,7,-1.7154,-7.199
356,1977,8,-6.637,49.751
357,1977,9,-4.315,35.038
358,1977,10,2.727,-59.004
359,1977,11,-3.2611,-24.05
360,1977,12,-6.7075,85.558
361,1978,1,-6.7179,77.892
362,1978,2,-2.3622,-42.524
363,1978,3,-1.3003,10.723
364,1978,4,-1.8105,34.135
365,1978,5,0.3397,0.43634
366,1978,6,-1.3252,-11.528
367,1978,7,-1.3085,-15.776
368,1978,8,-3.5276,43.908
369,1978,9,-6.3781,-1.3417
370,1978,10,14.604,-47.476
371,1978,11,-1.7792,78.995
372,1978,12,0.16698,-14.721
373,1979,1,-5.5285,50.727
374,1979,2,-6.4353,85.023
375,1979,3,4.3441,50.84
376,1979,4,-5.8885,93.455
377,1979,5,1.2866,-13.874
378,1979,6,0.91673,8.9751
379,1979,7,2.556,18.688
380,1979,8,-6.3231,25.396
381,1979,9,-1.4687,10.195
382,1979,10,2.5483,-13.101
383,1979,11,1.7178,-2.7105
384,1979,12,4.1489,-49.838
385,1980,1,-3.194,33.191
386,1980,2,-0.80334,-8.4064
387,1980,3,0.058542,-34.462
388,1980,4,6.0534,-83.009
389,1980,5,-1.4564,-44.766
390,1980,6,-1.2188,15.278
391,1980,7,2.7829,-15.873
392,1980,8,-0.8287,-20.439
393,1980,9,-1.5292,19.532
394,1980,10,9.4003,-31.46
395,1980,11,6.1272,-24.799
396,1980,12,-2.5842,92.779
397,1981,1,5.9654,-48.814
398,1981,2,-1.2289,3.4108
399,1981,3,1.613,-17.467
400,1981,4,-1.9497,44.661
401,1981,5,-1.7995,46.061
402,1981,6,0.3431,-35.118
403,1981,7,0.29482,2.2116
404,1981,8,6.8157,-31.612
405,1981,9,8.1152,-33.032
406,1981,10,-2.5703,36.995
407,1981,11,2.8366,-61.645
408,1981,12,-4.3122,-22.225
409,1982,1,-4.6877,41.779
410,1982,2,-5.8395,133
411,1982,3,-2.4001,18.126
412,1982,4,1.0448,-25.585
413,1982,5,2.5574,-32.572
414,1982,6,-3.3975,-31.44
415,1982,7,-2.3482,-23.72
416,1982,8,-3.4148,24.037
417,1982,9,-3.8104,-20.995
418,1982,10,0.57165,-15.574
419,1982,11,-5.5439,11.225
420,1982,12,-4.5803,-29.084
421,1983,1,2.7793,-82.258
422,1983,2,-1.675,-40.335
423,1983,3,-5.4382,29.573
424,1983,4,0.039202,-0.39025
425,1983,5,2.4769,2.5285
426,1983,6,-1.423,-14.928
427,1983,7,-0.26381,-29.256
428,1983,8,7.4846,-26.226
429,1983,9,-3.1909,-0.72497
430,1983,10,-1.6114,6.7286
431,1983,11,-9.442,-56.614
432,1983,12,-10.851,197.3
433,1984,1,6.2912,-31.23
434,1984,2,5.2944,-143.36
435,1984,3,0.92378,21.198
436,1984,4,-4.0939,-56.295
437,1984,5,-2.6112,-16.113
438,1984,6,0.50641,-0.2916
439,1984,7,1.0831,11.167
440,1984,8,0.17153,28.359
441,1984,9,-8.084,27.362
442,1984,10,-5.0545,78.773
443,1984,11,-4.8276,-28.552
444,1984,12,-1.6914,95.166
445,1985,1,10.691,22.097
446,1985,2,4.7713,-21.625
447,1985,3,2.4182,-81.064
448,1985,4,1.5831,-125.99
449,1985,5,1.6032,-49.657
450,1985,6,2.1433,-37.88
451,1985,7,-2.9049,41.364
452,1985,8,-2.1465,-5.2339
453,1985,9,-4.132,33.39
454,1985,10,-4.5375,-32.425
455,1985,11,-10.023,156.92
456,1985,12,4.953,62.645
457,1986,1,4.7301,-89.875
458,1986,2,-1.2967,36.073
459,1986,3,5.5651,-13.689
460,1986,4,1.1375,-36.289
461,1986,5,0.44267,-35.178
462,1986,6,-0.82223,-28.768
463,1986,7,-1.958,32.328
464,1986,8,1.2579,-52.875
465,1986,9,-11.615,91.168
466,1986,10,7.1944,84.047
467,1986,11,0.0013123,27.346
468,1986,12,5.12,-45.238
469,1987,1,3.3145,-83.46
470,1987,2,-0.034796,-2.8442
471,1987,3,-2.4554,35.129
472,1987,4,2.0644,-57.444
473,1987,5,2.4896,-69.489
474,1987,6,4.4647,-74.448
475,1987,7,-2.9961,19.291
476,1987,8,-5.0777,96.338
477,1987,9,8.0943,-60.037
478,1987,10,6.6138,-29.054
479,1987,11,7.5657,-73.684
480,1987,12,1.5219,-69.508
481,1988,1,-4.6386,1.9797
482,1988,2,5.0371,-31.85
483,1988,3,5.0615,-56.577
484,1988,4,-0.67113,-87.424
485,1988,5,1.6415,-16.493
486,1988,6,-0.98836,18.172
487,1988,7,2.2359,34.698
488,1988,8,1.3543,-43.666
489,1988,9,-2.4712,-21.7
490,1988,10,3.0958,19.546
491,1988,11,3.0202,-86.33
492,1988,12,1.6688,-30.956
493,1989,1,4.4834,-138.17
494,1989,2,-10.008,302.02
495,1989,3,-4.8015,125.79
496,1989,4,-5.7767,74.963
497,1989,5,1.2835,17.092
498,1989,6,-1.5789,1.1335
499,1989,7,-2.6622,31.67
500,1989,8,-5.6238,9.8945
501,1989,9,-1.2193,34.062
502,1989,10,-0.82731,14.163
503,1989,11,3.2421,-62.56
504,1989,12,8.8108,24.886
505,1990,1,-2.0697,-99.319
506,1990,2,1.116,-84.49
507,1990,3,1.8104,65.012
508,1990,4,-4.0023,144.69
509,1990,5,-2.9596,20.168
510,1990,6,0.038012,19.895
511,1990,7,0.23473,-3.7454
512,1990,8,0.57564,18.011
513,1990,9,5.2901,-15.21
514,1990,10,-1.7279,-39.349
515,1990,11,-4.7185,21.193
516,1990,12,1.3652,89.915
517,1991,1,-3.2903,79.04
518,1991,2,5.4904,-58.22
519,1991,3,-1.4577,28.024
520,1991,4,-0.36532,-32.597
521,1991,5,1.2098,-35.175
522,1991,6,-1.7326,15.34
523,1991,7,1.3692,-17.54
524,1991,8,4.8126,-25.896
525,1991,9,6.0121,-20.14
526,1991,10,-1.0709,90.889
527,1991,11,4.7435,12.238
528,1991,12,8.2921,-123.69
529,1992,1,7.8867,-102.6
530,1992,2,2.7549,-4.4765
531,1992,3,4.8243,-62.303
532,1992,4,-0.99339,52.731
533,1992,5,5.7068,35.999
534,1992,6,-0.74812,-12.931
535,1992,7,-0.5314,-1.9232
536,1992,8,-0.61799,-22.368
537,1992,9,2.1715,-43.837
538,1992,10,-3.979,9.4812
539,1992,11,3.0754,-34.967
540,1992,12,-2.5559,25.882
541,1993,1,1.2661,-24.549
542,1993,2,4.0243,46.294
543,1993,3,-1.3088,3.2896
544,1993,4,-4.2065,-2.4569
545,1993,5,-1.6813,28.228
546,1993,6,-1.9862,-16.587
547,1993,7,-3.4245,48.347
548,1993,8,-3.7811,23.136
549,1993,9,-2.2041,24.217
550,1993,10,1.1529,52.251
551,1993,11,4.1999,28.078
552,1993,12,4.091,-57.025
553,1994,1,-0.20946,33.156
554,1994,2,-5.8163,79.823
555,1994,3,5.4881,-71.013
556,1994,4,-0.36702,-1.6702
557,1994,5,2.6931,-63.929
558,1994,6,-1.4943,4.8002
559,1994,7,-1.1125,-15.988
560,1994,8,-6.0691,65.575
561,1994,9,7.1729,-15.497
562,1994,10,2.7949,-42.1
563,1994,11,1.6293,-55.81
564,1994,12,-2.2421,-64.747
565,1995,1,-7.0375,-60.993
566,1995,2,-2.7743,72.28
567,1995,3,-1.2099,46.459
568,1995,4,-3.0226,19.542
569,1995,5,-0.72242,3.47
570,1995,6,-0.83482,6.6286
571,1995,7,-0.4506,-2.1292
572,1995,8,-2.7572,0.34521
573,1995,9,-3.2727,23.198
574,1995,10,-2.5732,-20.072
575,1995,11,-4.0788,72.01
576,1995,12,-2.8351,30.966
577,1996,1,-6.8781,50.898
578,1996,2,5.7501,-35.733
579,1996,3,1.392,175.6
580,1996,4,-1.9557,-31.913
581,1996,5,-3.758,94.232
582,1996,6,2.1146,-5.8014
583,1996,7,-3.6762,1.423
584,1996,8,2.4797,-21.07
585,1996,9,0.87423,-29.84
586,1996,10,-3.9638,21.521
587,1996,11,-7.5543,113.88
588,1996,12,-5.6657,77.236
589,1997,1,-2.2212,-33.365
590,1997,2,6.6595,-7.635
591,1997,3,0.18893,41.297
592,1997,4,1.0988,40.181
593,1997,5,-1.2286,56.107
594,1997,6,-1.0809,13.26
595,1997,7,4.0108,8.7575
596,1997,8,-0.47332,39.708
597,1997,9,-0.16134,-7.3533
598,1997,10,-2.0443,43.396
599,1997,11,-1.6999,-61.55
600,1997,12,14.696,-136.6
601,1998,1,-6.5567,-24.611
602,1998,2,-2.7685,-65.374
603,1998,3,-1.3541,34.43
604,1998,4,0.025718,-41.974
605,1998,5,-1.0541,-82.994
606,1998,6,-3.0965,-0.7699
607,1998,7,0.065208,-19.045
608,1998,8,5.3311,-57.909
609,1998,9,-2.6819,-34.092
610,1998,10,2.1101,12.617
611,1998,11,-8.828,-5.1803
612,1998,12,-0.74433,11.68
613,1999,1,3.6077,-62.873
614,1999,2,-1.7191,-171.57
615,1999,3,0.3228,-81.107
616,1999,4,4.8702,-16.003
617,1999,5,4.9978,-20.716
618,1999,6,-1.2321,0.73351
619,1999,7,-1.0829,24.765
620,1999,8,1.448,-26.518
621,1999,9,5.615,-17.813
622,1999,10,9.977,-63.701
623,1999,11,2.144,-58.144
624,1999,12,10.483,-86.76
625,2000,1,0.06715,-58.837
626,2000,2,-4.8171,2.2008
627,2000,3,6.6372,-49.401
628,2000,4,1.9321,24.583
629,2000,5,-0.61525,7.0942
630,2000,6,-0.16014,-7.7547
631,2000,7,2.9816,-44.545
632,2000,8,0.61498,23.615
633,2000,9,6.0195,7.2984
634,2000,10,2.3665,-8.3425
635,2000,11,0.97339,10.793
636,2000,12,-1.983,56.034
637,2001,1,9.3141,-108.21
638,2001,2,0.28979,46.998
639,2001,3,2.0542,-24.631
640,2001,4,-1.7135,-14.888
641,2001,5,3.7642,-62.249
642,2001,6,-1.9782,75.84
643,2001,7,1.2385,-7.3479
644,2001,8,-2.0606,22.086
645,2001,9,3.6339,-19.44
646,2001,10,-1.3066,-52.694
647,2001,11,-4.6147,-19.679
648,2001,12,1.679,-108.29
649,2002,1,-0.71898,-34.676
650,2002,2,3.3142,-79.785
651,2002,3,-4.1139,113.11
652,2002,4,-6.439,130.84
653,2002,5,0.25112,79.344
654,2002,6,-0.29628,5.3269
655,2002,7,-0.21955,8.9061
656,2002,8,10.469,10.88
657,2002,9,-3.0517,12.888
658,2002,10,0.78284,72.052
659,2002,11,3.4623,16.433
660,2002,12,1.6234,-38.289
661,2003,1,2.6355,12.36
662,2003,2,-3.7913,55.137
663,2003,3,-0.25697,19.377
664,2003,4,-5.8321,31.777
665,2003,5,1.2281,5.2753
666,2003,6,0.31316,3.6719
667,2003,7,-2.1351,31.442
668,2003,8,0.10329,7.4005
669,2003,9,2.5303,23.667
670,2003,10,-4.9402,63.048
671,2003,11,-1.5558,35.428
672,2003,12,6.6028,-78.196
673,2004,1,-0.53261,47.993
674,2004,2,2.1681,-32.133
675,2004,3,4.935,-15.402
676,2004,4,1.9548,25.647
677,2004,5,-3.8225,105.25
678,2004,6,-4.4049,65.267
679,2004,7,-1.8407,33.527
680,2004,8,-6.3398,99.509
681,2004,9,4.1147,-27.588
682,2004,10,-0.32329,10.512
683,2004,11,4.6161,-43.96
684,2004,12,9.1573,29.808
685,2005,1,-0.55318,142.67
686,2005,2,1.815,-4.7697
687,2005,3,3.4944,-14.801
688,2005,4,-1.9607,46.55
689,2005,5,-2.8906,29.977
690,2005,6,-2.258,22.304
691,2005,7,2.7212,-18.155
692,2005,8,1.2147,47.755
693,2005,9,1.1391,1.4984
694,2005,10,-0.13886,-45.13
695,2005,11,12.836,-46.915
696,2005,12,1.3767,-2.2691
697,2006,1,-3.9237,-113.52
698,2006,2,-2.9305,-12.303
699,2006,3,-5.4487,48.461
700,2006,4,3.6462,-67.88
701,2006,5,2.1589,42.94
702,2006,6,0.30896,11.607
703,2006,7,-0.27432,0.59891
704,2006,8,4.4666,-41.499
705,2006,9,5.1861,22.46
706,2006,10,1.9456,31.431
707,2006,11,-9.3675,66.63
708,2006,12,10.769,-129.05
709,2007,1,2.6582,-89.753
710,2007,2,-4.2011,78.949
711,2007,3,5.2183,-43.293
712,2007,4,0.47313,-17.452
713,2007,5,0.11579,8.9681
714,2007,6,-3.9266,-9.1064
715,2007,7,3.4001,-10.317
716,2007,8,-6.854,31.868
717,2007,9,-0.53449,-11.003
718,2007,10,1.1675,-57.791
719,2007,11,-5.9806,-19.267
720,2007,12,-4.6869,-23.398
721,2008,1,-2.0849,-72.435
722,2008,2,0.64833,-54.234
723,2008,3,1.2852,-36.104
724,2008,4,1.6501,40.835
725,2008,5,0.75773,-27.318
726,2008,6,-1.7722,-18.636
727,2008,7,4.6196,-47.135
728,2008,8,0.047959,-38.298
729,2008,9,-1.3151,-11.775
730,2008,10,7.9794,-42.715
731,2008,11,-2.0036,-58.072
732,2008,12,-4.4,113.31
733,2009,1,6.4096,-19.245
734,2009,2,-3.2697,41.623
735,2009,3,-0.49036,-26.785
736,2009,4,-4.263,47.58
737,2009,5,-3.2553,88.532
738,2009,6,-2.9152,-16.291
739,2009,7,-4.071,31.352
740,2009,8,5.0874,-8.4472
741,2009,9,1.9094,-26.963
742,2009,10,-5.3511,90.854
743,2009,11,1.9508,-128.04
744,2009,12,-4.9456,107.5
745,2010,1,-0.47601,12.694
746,2010,2,-4.2028,-19.58
747,2010,3,9.7941,-127.08
748,2010,4,-3.4686,-70.633
749,2010,5,-4.4834,26.786
750,2010,6,1.6467,-18.321
751,2010,7,-0.81658,-31.143
752,2010,8,-4.0057,-3.8465
753,2010,9,-4.8687,91.573
754,2010,10,2.8808,-55.941
755,2010,11,1.6652,73.927
756,2010,12,-7.8261,46.831
757,2011,1,-1.3916,62.238
758,2011,2,0.81413,100.94
759,2011,3,-5.489,26.279
760,2011,4,-4.2666,-15.647
761,2011,5,-2.374,8.4675
762,2011,6,-3.3689,-38.243
763,2011,7,-0.87964,-57.97
764,2011,8,8.6238,-71.899
765,2011,9,7.8807,-73.656
766,2011,10,-1.2747,-40.881
767,2011,11,-0.99783,-75.654
768,2011,12,5.3933,-77.044
769,2012,1,3.6179,-132.56
770,2012,2,-1.1089,-63.895
771,2012,3,-1.9346,-110.98
772,2012,4,-5.5247,44.098
773,2012,5,4.268,-58.642
774,2012,6,1.1081,2.4437
775,2012,7,-0.06521,-41.184
776,2012,8,-1.2943,2.6773
777,2012,9,5.8977,-77.537
778,2012,10,-10.94,146.98
779,2012,11,-5.7134,81.492
780,2012,12,-4.2547,-26.726
781,2013,1,0.1498,9.2781
782,2013,2,3.843,-66.181
783,2013,3,-3.5676,24.109
784,2013,4,2.3447,60.485
785,2013,5,3.4324,12.451
786,2013,6,-1.99,93.93
787,2013,7,-1.4658,53.094
788,2013,8,-3.4424,-24.908
789,2013,9,-1.1554,-48.225
790,2013,10,-1.2134,41.232
791,2013,11,-1.384,80.345
792,2013,12,3.0972,161.78
793,2014,1,5.2942,8.7741
794,2014,2,-6.8351,36.33
795,2014,3,-1.5082,14.057
796,2014,4,-0.54333,15.922
797,2014,5,-3.3032,123.1
798,2014,6,2.7194,-35.758
799,2014,7,5.0862,7.3881
800,2014,8,5.0721,-29.13
801,2014,9,1.7165,37.812
802,2014,10,-1.4689,1.2138
803,2014,11,-6.182,75.813
804,2014,12,-3.3134,28.227
805,2015,1,10.624,65.695
806,2015,2,-2.7681,123.09
807,2015,3,1.2162,23.064
808,2015,4,3.9936,-69.894
809,2015,5,-6.0287,72.084
810,2015,6,0.46887,41.899
811,2015,7,5.1806,-33.485
812,2015,8,4.3315,25.459
813,2015,9,1.7685,-13.066
814,2015,10,0.15299,61.833
815,2015,11,6.1474,-39.678
816,2015,12,-7.1214,-61.456
817,2016,1,2.5381,-43.519
818,2016,2,2.4413,-25.736
819,2016,3,-3.0018,4.1791
820,2016,4,1.9755,18.276
821,2016,5,3.0407,78.584
822,2016,6,-1.3667,31.957
823,2016,7,-0.51247,35.426
824,2016,8,-0.75407,34.675
825,2016,9,0.88542,35.794
826,2016,10,-14.423,109.81
827,2016,11,2.0993,-39.397
828,2016,12,-2.122,49.626
829,2017,1,1.04,12.005
830,2017,2,-0.30426,43.767
831,2017,3,-1.1749,38.875
832,2017,4,-5.6125,34.355
833,2017,5,2.0251,-31.624
